{
  "project_info": {
    "project_number": "824126589226",
    "firebase_url": "https://firm-circlet-629.firebaseio.com",
    "project_id": "firm-circlet-629",
    "storage_bucket": "firm-circlet-629.appspot.com"
  },
  "client": [
    {
      "client_info": {
        "mobilesdk_app_id": "1:824126589226:android:d622c4201d6043fe",
        "android_client_info": {
          "package_name": "com.dubaiisc.disc"
        }
      },
      "oauth_client": [
        {
          "client_id": "824126589226-nmv4e7m7oivkg4drvqsqlkcuki0cu3te.apps.googleusercontent.com",
          "client_type": 3
        }
      ],
      "api_key": [
        {
          "current_key": "AIzaSyDoSbzUC8WlEwGMkeSZKOfVviIgM8VXAxA"
        }
      ],
      "services": {
        "analytics_service": {
          "status": 1
        },
        "appinvite_service": {
          "status": 1,
          "other_platform_oauth_client": []
        },
        "ads_service": {
          "status": 2
        }
      }
    }
  ],
  "configuration_version": "1"
}